test_data_make/my_test_result/branch/waveform.vcd
$date
	Wed Dec 27 17:03:19 2023
$end
$version
	Icarus Verilog
$end
$timescale
	1s
$end
$scope module tb $end
$var wire 1 ! halt $end
$var reg 1 " clk $end
$var reg 1 # exit $end
$var reg 1 $ rst $end
$scope module CPU $end
$var wire 6 % ALU_Control [5:0] $end
$var wire 1 & ALU_branch_flag $end
$var wire 32 ' ALU_result [31:0] $end
$var wire 32 ( DataWord [31:0] $end
$var wire 32 ) InstWord [31:0] $end
$var wire 2 * MemSize [1:0] $end
$var wire 1 + MemWrEn $end
$var wire 32 , NPC [31:0] $end
$var wire 32 - PC [31:0] $end
$var wire 1 . RWrEn $end
$var wire 32 / RWrdata [31:0] $end
$var wire 32 0 Rdata1 [31:0] $end
$var wire 32 1 Rdata2 [31:0] $end
$var wire 5 2 Rdst [4:0] $end
$var wire 5 3 Rsrc1 [4:0] $end
$var wire 5 4 Rsrc2 [4:0] $end
$var wire 32 5 StoreData [31:0] $end
$var wire 1 6 branch_jump_flag $end
$var wire 1 7 branch_op $end
$var wire 1 8 clk $end
$var wire 3 9 funct3 [2:0] $end
$var wire 7 : funct7 [6:0] $end
$var wire 1 ! halt $end
$var wire 32 ; imm32 [31:0] $end
$var wire 1 < load_extend_sign $end
$var wire 1 = mem_wEn $end
$var wire 1 > next_PC_select $end
$var wire 2 ? op_A_sel [1:0] $end
$var wire 1 @ op_B_sel $end
$var wire 7 A opcode [6:0] $end
$var wire 32 B operand_A [31:0] $end
$var wire 32 C operand_B [31:0] $end
$var wire 1 D rst $end
$var wire 32 E target_PC [31:0] $end
$var wire 1 F wEn $end
$var wire 1 G wb_sel $end
$scope module PC_REG $end
$var wire 1 8 CLK $end
$var wire 32 H Din [31:0] $end
$var wire 1 D RST $end
$var wire 1 I WEN $end
$var reg 32 J Qout [31:0] $end
$upscope $end
$scope module IMEM $end
$var wire 32 K Addr [31:0] $end
$var wire 32 L AddrW [31:0] $end
$var wire 1 8 CLK $end
$var wire 2 M Size [1:0] $end
$var reg 32 N DataOut [31:0] $end
$upscope $end
$scope module decoder_unit $end
$var wire 32 O PC [31:0] $end
$var wire 3 P funct3 [2:0] $end
$var wire 7 Q funct7 [6:0] $end
$var wire 32 R i_imm_32 [31:0] $end
$var wire 12 S i_imm_orig [11:0] $end
$var wire 32 T imm32 [31:0] $end
$var wire 32 U instruction [31:0] $end
$var wire 7 V opcode [6:0] $end
$var wire 5 W rd [4:0] $end
$var wire 5 X read_sel1 [4:0] $end
$var wire 5 Y read_sel2 [4:0] $end
$var wire 32 Z s_imm_32 [31:0] $end
$var wire 5 [ s_imm_lsb [4:0] $end
$var wire 7 \ s_imm_msb [6:0] $end
$var wire 12 ] s_imm_orig [11:0] $end
$var wire 32 ^ sb_imm_32 [31:0] $end
$var wire 13 _ sb_imm_orig [12:0] $end
$var wire 5 ` shamt [4:0] $end
$var wire 32 a shamt_32 [31:0] $end
$var wire 20 b u_imm [19:0] $end
$var wire 32 c u_imm_32 [31:0] $end
$var wire 21 d uj_imm [20:0] $end
$var wire 32 e uj_imm_32 [31:0] $end
$var reg 6 f ALU_Control [5:0] $end
$var reg 2 g MemSize [1:0] $end
$var reg 1 h branch_op $end
$var reg 1 i load_extend_sign $end
$var reg 1 j mem_wEn $end
$var reg 2 k op_A_sel [1:0] $end
$var reg 1 l op_B_sel $end
$var reg 1 m wEn $end
$var reg 1 n wb_sel $end
$upscope $end
$scope module RF $end
$var wire 5 o AddrA [4:0] $end
$var wire 5 p AddrB [4:0] $end
$var wire 5 q AddrW [4:0] $end
$var wire 1 8 CLK $end
$var wire 32 r DataInW [31:0] $end
$var wire 1 . WenW $end
$var reg 32 s DataOutA [31:0] $end
$var reg 32 t DataOutB [31:0] $end
$upscope $end
$scope module ALU_inst $end
$var wire 6 u ALU_Control [5:0] $end
$var wire 32 v ALU_result [31:0] $end
$var wire 32 w operand_A [31:0] $end
$var wire 32 x operand_B [31:0] $end
$upscope $end
$scope module DMEM $end
$var wire 32 y Addr [31:0] $end
$var wire 32 z AddrH [31:0] $end
$var wire 32 { AddrW [31:0] $end
$var wire 1 8 CLK $end
$var wire 32 | DataIn [31:0] $end
$var wire 2 } Size [1:0] $end
$var wire 1 + WEN $end
$var wire 1 < load_extend_sign $end
$var reg 32 ~ DataOut [31:0] $end
$upscope $end
$upscope $end
$upscope $end
$enddefinitions $end
#0
$dumpvars
bx ~
bx }
b0 |
b0 {
b0 z
b0 y
b0 x
b0 w
b0 v
b0 u
b0 t
b0 s
b0 r
b1 q
b0 p
b0 o
0n
1m
1l
b0 k
0j
xi
0h
bx g
b0 f
b0 e
b0 d
b0 c
b0 b
b0 a
b0 `
b100000000000 _
b100000000000 ^
b1 ]
b0 \
b1 [
b1 Z
b0 Y
b0 X
b1 W
b10011 V
b10010011 U
b0 T
b0 S
b0 R
b0 Q
b0 P
b0 O
b10010011 N
b10 M
b0 L
b0 K
b0 J
0I
b100 H
0G
1F
b0 E
1D
b0 C
b0 B
b10011 A
1@
b0 ?
0>
0=
x<
b0 ;
b0 :
b0 9
08
07
06
b0 5
b0 4
b0 3
b1 2
b0 1
b0 0
b0 /
0.
b0 -
b100 ,
1+
bx *
b10010011 )
bx (
b0 '
0&
b0 %
1$
0#
0"
0!
$end
#5
1"
18
#10
b10 2
b10 W
b10 q
b10 Z
b10 ]
b10 [
b10 ^
b10 _
b100010011 N
b100010011 )
b100010011 U
b1000 ,
b1000 H
b100 L
b100 J
b100 -
b100 K
b100 O
0"
08
#15
1"
18
#20
b1010 z
b1000 {
b1010 /
b1010 r
b1010 '
b1010 v
b1010 y
b1010 C
b1010 x
b1010 ;
b1010 T
bx t
bx 1
bx 5
bx |
b1010 4
b1010 Y
b1010 p
b11 2
b11 W
b11 q
b11 Z
b11 ]
b11 [
b1010 R
b1010 S
b101000000000000000000000 c
b101000000000 b
b100000000010 ^
b100000000010 _
b1010 e
b1010 d
b1010 a
b1010 `
b101000000000000110010011 N
b101000000000000110010011 )
b101000000000000110010011 U
b1100 ,
b1100 H
b1000 L
b1000 J
b1000 -
b1000 K
b1000 O
0"
08
#25
1"
18
#30
b10000 B
b10000 w
b11111 f
b11111 %
b11111 u
0l
0@
b10 k
b10 ?
b10000 z
b10000 {
b10000 /
b10000 r
b10000 '
b10000 v
b10000 y
bx C
bx x
1>
b11000 E
b1100 ;
b1100 T
b1101111 A
b1101111 V
b1100 4
b1100 Y
b1100 p
b0 2
b0 W
b0 q
b0 Z
b0 ]
b0 [
b1100 R
b1100 S
b110000000000000000000000 c
b110000000000 b
b0 ^
b0 _
b1100 e
b1100 d
b1100 a
b1100 `
b110000000000000001101111 N
b110000000000000001101111 )
b110000000000000001101111 U
b11000 ,
b11000 H
b1100 L
b1100 J
b1100 -
b1100 K
b1100 O
0"
08
#35
1"
18
#40
16
1&
1.
b1100 f
b1100 %
b1100 u
0m
0F
b0 k
b0 ?
1h
17
b0 z
b0 {
b1 /
b1 r
b1 '
b1 v
b1 y
b11111111111111111111111111111000 ;
b11111111111111111111111111111000 T
0!
1>
b1010 C
b1010 x
b1010 t
b1010 1
b1010 5
b1010 |
b1100011 A
b1100011 V
b1111111 :
b1111111 Q
b100 9
b100 P
b11 4
b11 Y
b11 p
b10 3
b10 X
b10 o
b11001 2
b11001 W
b11001 q
b1111111 \
b11111111111111111111111111111001 Z
b111111111001 ]
b11001 [
b11111111111111111111111111100011 R
b111111100011 S
b11111110001100010100000000000000 c
b11111110001100010100 b
b11111111111111111111111111111000 ^
b1111111111000 _
b11111111111100010100111111100010 e
b100010100111111100010 d
b11 a
b11 `
b10000 ,
b10000 H
b0 B
b0 w
b11111110001100010100110011100011 N
b11111110001100010100110011100011 )
b11111110001100010100110011100011 U
b11000 L
b10000 E
b11000 J
b11000 -
b11000 K
b11000 O
0"
08
#45
1"
18
#50
b100000 z
b100000 {
0.
b0 f
b0 %
b0 u
1m
1F
1l
1@
0h
07
0>
06
b100001 /
b100001 r
1&
b100001 '
b100001 v
b100001 y
0!
b100001 ;
b100001 T
b100001 C
b100001 x
b0 t
b0 1
b0 5
b0 |
b10011 A
b10011 V
b1 :
b1 Q
b0 9
b0 P
b1 4
b1 Y
b1 p
b1 3
b1 X
b1 o
b1 2
b1 W
b1 q
b1 \
b100001 Z
b100001 ]
b1 [
b100001 R
b100001 S
b10000100001000000000000000 c
b10000100001000 b
b100000100000 ^
b100000100000 _
b1000100000100000 e
b1000100000100000 d
b1 a
b1 `
b10100 ,
b10100 H
b10000100001000000010010011 N
b10000100001000000010010011 )
b10000100001000000010010011 U
b10000 L
b0 E
b10000 J
b10000 -
b10000 K
b10000 O
0"
08
#55
1"
18
#60
b1 C
b1 x
b1 ;
b1 T
b0 z
b0 {
b1 /
b1 r
1&
b1 '
b1 v
b1 y
b0 :
b0 Q
b10 3
b10 X
b10 o
b10 2
b10 W
b10 q
b0 \
b10 Z
b10 ]
b10 [
b1 R
b1 S
b100010000000000000000 c
b100010000 b
b10 ^
b10 _
b10000100000000000 e
b10000100000000000 d
b0 B
b0 w
b100010000000100010011 N
b100010000000100010011 )
b100010000000100010011 U
b11000 ,
b11000 H
b100001 t
b100001 1
b100001 5
b100001 |
b0 s
b0 0
b10100 L
b10100 J
b10100 -
b10100 K
b10100 O
0"
08
#65
1"
18
#70
1>
b10000 E
1.
16
b1100 f
b1100 %
b1100 u
0m
0F
0l
0@
1h
17
b0 {
b1010 C
b1010 x
b11111111111111111111111111111000 ;
b11111111111111111111111111111000 T
b0 z
b1 /
b1 r
1&
b1010 t
b1010 1
b1010 5
b1010 |
b1 '
b1 v
b1 y
b1100011 A
b1100011 V
b1111111 :
b1111111 Q
b100 9
b100 P
b11 4
b11 Y
b11 p
b11001 2
b11001 W
b11001 q
b1111111 \
b11111111111111111111111111111001 Z
b111111111001 ]
b11001 [
b11111111111111111111111111100011 R
b111111100011 S
b11111110001100010100000000000000 c
b11111110001100010100 b
b11111111111111111111111111111000 ^
b1111111111000 _
b11111111111100010100111111100010 e
b100010100111111100010 d
b11 a
b11 `
b1 B
b1 w
b11111110001100010100110011100011 N
b11111110001100010100110011100011 )
b11111110001100010100110011100011 U
b10000 ,
b10000 H
b1 s
b1 0
b11000 L
b11000 J
b11000 -
b11000 K
b11000 O
0"
08
#75
1"
18
#80
b1000010 z
b1000000 {
0.
b0 f
b0 %
b0 u
1m
1F
1l
1@
0h
07
0>
06
b1000010 /
b1000010 r
0&
b1000010 '
b1000010 v
b1000010 y
0!
b100001 ;
b100001 T
b100001 C
b100001 x
b100001 B
b100001 w
b100001 t
b100001 1
b100001 5
b100001 |
b100001 s
b100001 0
b10011 A
b10011 V
b1 :
b1 Q
b0 9
b0 P
b1 4
b1 Y
b1 p
b1 3
b1 X
b1 o
b1 2
b1 W
b1 q
b1 \
b100001 Z
b100001 ]
b1 [
b100001 R
b100001 S
b10000100001000000000000000 c
b10000100001000 b
b100000100000 ^
b100000100000 _
b1000100000100000 e
b1000100000100000 d
b1 a
b1 `
b10100 ,
b10100 H
b10000100001000000010010011 N
b10000100001000000010010011 )
b10000100001000000010010011 U
b10000 L
b0 E
b10000 J
b10000 -
b10000 K
b10000 O
0"
08
#85
1"
18
#90
b1 C
b1 x
b1 ;
b1 T
b10 z
b0 {
b10 /
b10 r
0&
b10 '
b10 v
b10 y
b0 :
b0 Q
b10 3
b10 X
b10 o
b10 2
b10 W
b10 q
b0 \
b10 Z
b10 ]
b10 [
b1 R
b1 S
b100010000000000000000 c
b100010000 b
b10 ^
b10 _
b10000100000000000 e
b10000100000000000 d
b1 B
b1 w
b100010000000100010011 N
b100010000000100010011 )
b100010000000100010011 U
b11000 ,
b11000 H
b1000010 t
b1000010 1
b1000010 5
b1000010 |
b1 s
b1 0
b10100 L
b10100 J
b10100 -
b10100 K
b10100 O
0"
08
#95
1"
18
#100
1>
b10000 E
16
1.
b1100 f
b1100 %
b1100 u
0m
0F
0l
0@
1h
17
b0 z
b0 {
b1010 C
b1010 x
b11111111111111111111111111111000 ;
b11111111111111111111111111111000 T
b1 /
b1 r
1&
b1010 t
b1010 1
b1010 5
b1010 |
b1 '
b1 v
b1 y
b1100011 A
b1100011 V
b1111111 :
b1111111 Q
b100 9
b100 P
b11 4
b11 Y
b11 p
b11001 2
b11001 W
b11001 q
b1111111 \
b11111111111111111111111111111001 Z
b111111111001 ]
b11001 [
b11111111111111111111111111100011 R
b111111100011 S
b11111110001100010100000000000000 c
b11111110001100010100 b
b11111111111111111111111111111000 ^
b1111111111000 _
b11111111111100010100111111100010 e
b100010100111111100010 d
b11 a
b11 `
b10 B
b10 w
b11111110001100010100110011100011 N
b11111110001100010100110011100011 )
b11111110001100010100110011100011 U
b10000 ,
b10000 H
b10 s
b10 0
b11000 L
b11000 J
b11000 -
b11000 K
b11000 O
0"
08
#105
1"
18
#110
b1100010 z
b1100000 {
0.
b0 f
b0 %
b0 u
1m
1F
1l
1@
0h
07
0>
06
b1100011 /
b1100011 r
1&
b1100011 '
b1100011 v
b1100011 y
0!
b100001 ;
b100001 T
b100001 C
b100001 x
b1000010 B
b1000010 w
b1000010 t
b1000010 1
b1000010 5
b1000010 |
b1000010 s
b1000010 0
b10011 A
b10011 V
b1 :
b1 Q
b0 9
b0 P
b1 4
b1 Y
b1 p
b1 3
b1 X
b1 o
b1 2
b1 W
b1 q
b1 \
b100001 Z
b100001 ]
b1 [
b100001 R
b100001 S
b10000100001000000000000000 c
b10000100001000 b
b100000100000 ^
b100000100000 _
b1000100000100000 e
b1000100000100000 d
b1 a
b1 `
b10100 ,
b10100 H
b10000100001000000010010011 N
b10000100001000000010010011 )
b10000100001000000010010011 U
b10000 L
b0 E
b10000 J
b10000 -
b10000 K
b10000 O
0"
08
#115
1"
18
#120
b1 C
b1 x
b1 ;
b1 T
b10 z
b0 {
b11 /
b11 r
1&
b11 '
b11 v
b11 y
b0 :
b0 Q
b10 3
b10 X
b10 o
b10 2
b10 W
b10 q
b0 \
b10 Z
b10 ]
b10 [
b1 R
b1 S
b100010000000000000000 c
b100010000 b
b10 ^
b10 _
b10000100000000000 e
b10000100000000000 d
b10 B
b10 w
b100010000000100010011 N
b100010000000100010011 )
b100010000000100010011 U
b11000 ,
b11000 H
b1100011 t
b1100011 1
b1100011 5
b1100011 |
b10 s
b10 0
b10100 L
b10100 J
b10100 -
b10100 K
b10100 O
0"
08
#125
1"
18
#130
1>
b10000 E
1.
16
b1100 f
b1100 %
b1100 u
0m
0F
0l
0@
1h
17
b1010 C
b1010 x
b11111111111111111111111111111000 ;
b11111111111111111111111111111000 T
b0 z
b0 {
b1 /
b1 r
1&
b1010 t
b1010 1
b1010 5
b1010 |
b1 '
b1 v
b1 y
b1100011 A
b1100011 V
b1111111 :
b1111111 Q
b100 9
b100 P
b11 4
b11 Y
b11 p
b11001 2
b11001 W
b11001 q
b1111111 \
b11111111111111111111111111111001 Z
b111111111001 ]
b11001 [
b11111111111111111111111111100011 R
b111111100011 S
b11111110001100010100000000000000 c
b11111110001100010100 b
b11111111111111111111111111111000 ^
b1111111111000 _
b11111111111100010100111111100010 e
b100010100111111100010 d
b11 a
b11 `
b11 B
b11 w
b11111110001100010100110011100011 N
b11111110001100010100110011100011 )
b11111110001100010100110011100011 U
b10000 ,
b10000 H
b11 s
b11 0
b11000 L
b11000 J
b11000 -
b11000 K
b11000 O
0"
08
#135
1"
18
#140
b10000100 z
b10000100 {
0.
b0 f
b0 %
b0 u
1m
1F
1l
1@
0h
07
0>
06
b10000100 /
b10000100 r
0&
b10000100 '
b10000100 v
b10000100 y
0!
b100001 ;
b100001 T
b100001 C
b100001 x
b1100011 B
b1100011 w
b1100011 t
b1100011 1
b1100011 5
b1100011 |
b1100011 s
b1100011 0
b10011 A
b10011 V
b1 :
b1 Q
b0 9
b0 P
b1 4
b1 Y
b1 p
b1 3
b1 X
b1 o
b1 2
b1 W
b1 q
b1 \
b100001 Z
b100001 ]
b1 [
b100001 R
b100001 S
b10000100001000000000000000 c
b10000100001000 b
b100000100000 ^
b100000100000 _
b1000100000100000 e
b1000100000100000 d
b1 a
b1 `
b10100 ,
b10100 H
b10000100001000000010010011 N
b10000100001000000010010011 )
b10000100001000000010010011 U
b10000 L
b0 E
b10000 J
b10000 -
b10000 K
b10000 O
0"
08
#145
1"
18
#150
b1 C
b1 x
b1 ;
b1 T
b100 z
b100 {
b100 /
b100 r
0&
b100 '
b100 v
b100 y
b0 :
b0 Q
b10 3
b10 X
b10 o
b10 2
b10 W
b10 q
b0 \
b10 Z
b10 ]
b10 [
b1 R
b1 S
b100010000000000000000 c
b100010000 b
b10 ^
b10 _
b10000100000000000 e
b10000100000000000 d
b11 B
b11 w
b100010000000100010011 N
b100010000000100010011 )
b100010000000100010011 U
b11000 ,
b11000 H
b10000100 t
b10000100 1
b10000100 5
b10000100 |
b11 s
b11 0
b10100 L
b10100 J
b10100 -
b10100 K
b10100 O
0"
08
#155
1"
18
#160
1>
b10000 E
16
1.
b1100 f
b1100 %
b1100 u
0m
0F
0l
0@
1h
17
b0 z
b0 {
b1010 C
b1010 x
b11111111111111111111111111111000 ;
b11111111111111111111111111111000 T
b1 /
b1 r
1&
b1010 t
b1010 1
b1010 5
b1010 |
b1 '
b1 v
b1 y
b1100011 A
b1100011 V
b1111111 :
b1111111 Q
b100 9
b100 P
b11 4
b11 Y
b11 p
b11001 2
b11001 W
b11001 q
b1111111 \
b11111111111111111111111111111001 Z
b111111111001 ]
b11001 [
b11111111111111111111111111100011 R
b111111100011 S
b11111110001100010100000000000000 c
b11111110001100010100 b
b11111111111111111111111111111000 ^
b1111111111000 _
b11111111111100010100111111100010 e
b100010100111111100010 d
b11 a
b11 `
b100 B
b100 w
b11111110001100010100110011100011 N
b11111110001100010100110011100011 )
b11111110001100010100110011100011 U
b10000 ,
b10000 H
b100 s
b100 0
b11000 L
b11000 J
b11000 -
b11000 K
b11000 O
0"
08
#165
1"
18
#170
b10100100 z
b10100100 {
0.
b0 f
b0 %
b0 u
1m
1F
1l
1@
0h
07
0>
06
b10100101 /
b10100101 r
1&
b10100101 '
b10100101 v
b10100101 y
0!
b100001 ;
b100001 T
b100001 C
b100001 x
b10000100 B
b10000100 w
b10000100 t
b10000100 1
b10000100 5
b10000100 |
b10000100 s
b10000100 0
b10011 A
b10011 V
b1 :
b1 Q
b0 9
b0 P
b1 4
b1 Y
b1 p
b1 3
b1 X
b1 o
b1 2
b1 W
b1 q
b1 \
b100001 Z
b100001 ]
b1 [
b100001 R
b100001 S
b10000100001000000000000000 c
b10000100001000 b
b100000100000 ^
b100000100000 _
b1000100000100000 e
b1000100000100000 d
b1 a
b1 `
b10100 ,
b10100 H
b10000100001000000010010011 N
b10000100001000000010010011 )
b10000100001000000010010011 U
b10000 L
b0 E
b10000 J
b10000 -
b10000 K
b10000 O
0"
08
#175
1"
18
#180
b1 C
b1 x
b1 ;
b1 T
b100 z
b100 {
b101 /
b101 r
1&
b101 '
b101 v
b101 y
b0 :
b0 Q
b10 3
b10 X
b10 o
b10 2
b10 W
b10 q
b0 \
b10 Z
b10 ]
b10 [
b1 R
b1 S
b100010000000000000000 c
b100010000 b
b10 ^
b10 _
b10000100000000000 e
b10000100000000000 d
b100 B
b100 w
b100010000000100010011 N
b100010000000100010011 )
b100010000000100010011 U
b11000 ,
b11000 H
b10100101 t
b10100101 1
b10100101 5
b10100101 |
b100 s
b100 0
b10100 L
b10100 J
b10100 -
b10100 K
b10100 O
0"
08
#185
1"
18
#190
1>
b10000 E
1.
16
b1100 f
b1100 %
b1100 u
0m
0F
0l
0@
1h
17
b0 {
b1010 C
b1010 x
b11111111111111111111111111111000 ;
b11111111111111111111111111111000 T
b0 z
b1 /
b1 r
1&
b1010 t
b1010 1
b1010 5
b1010 |
b1 '
b1 v
b1 y
b1100011 A
b1100011 V
b1111111 :
b1111111 Q
b100 9
b100 P
b11 4
b11 Y
b11 p
b11001 2
b11001 W
b11001 q
b1111111 \
b11111111111111111111111111111001 Z
b111111111001 ]
b11001 [
b11111111111111111111111111100011 R
b111111100011 S
b11111110001100010100000000000000 c
b11111110001100010100 b
b11111111111111111111111111111000 ^
b1111111111000 _
b11111111111100010100111111100010 e
b100010100111111100010 d
b11 a
b11 `
b101 B
b101 w
b11111110001100010100110011100011 N
b11111110001100010100110011100011 )
b11111110001100010100110011100011 U
b10000 ,
b10000 H
b101 s
b101 0
b11000 L
b11000 J
b11000 -
b11000 K
b11000 O
0"
08
#195
1"
18
#200
b11000110 z
b11000100 {
0.
b0 f
b0 %
b0 u
1m
1F
1l
1@
0h
07
0>
06
b11000110 /
b11000110 r
0&
b11000110 '
b11000110 v
b11000110 y
0!
b100001 ;
b100001 T
b100001 C
b100001 x
b10100101 B
b10100101 w
b10100101 t
b10100101 1
b10100101 5
b10100101 |
b10100101 s
b10100101 0
b10011 A
b10011 V
b1 :
b1 Q
b0 9
b0 P
b1 4
b1 Y
b1 p
b1 3
b1 X
b1 o
b1 2
b1 W
b1 q
b1 \
b100001 Z
b100001 ]
b1 [
b100001 R
b100001 S
b10000100001000000000000000 c
b10000100001000 b
b100000100000 ^
b100000100000 _
b1000100000100000 e
b1000100000100000 d
b1 a
b1 `
b10100 ,
b10100 H
b10000100001000000010010011 N
b10000100001000000010010011 )
b10000100001000000010010011 U
b10000 L
b0 E
b10000 J
b10000 -
b10000 K
b10000 O
0"
08
#205
1"
18
#210
b1 C
b1 x
b1 ;
b1 T
b110 z
b100 {
b110 /
b110 r
0&
b110 '
b110 v
b110 y
b0 :
b0 Q
b10 3
b10 X
b10 o
b10 2
b10 W
b10 q
b0 \
b10 Z
b10 ]
b10 [
b1 R
b1 S
b100010000000000000000 c
b100010000 b
b10 ^
b10 _
b10000100000000000 e
b10000100000000000 d
b101 B
b101 w
b100010000000100010011 N
b100010000000100010011 )
b100010000000100010011 U
b11000 ,
b11000 H
b11000110 t
b11000110 1
b11000110 5
b11000110 |
b101 s
b101 0
b10100 L
b10100 J
b10100 -
b10100 K
b10100 O
0"
08
#215
1"
18
#220
1>
b10000 E
16
1.
b1100 f
b1100 %
b1100 u
0m
0F
0l
0@
1h
17
b0 z
b0 {
b1010 C
b1010 x
b11111111111111111111111111111000 ;
b11111111111111111111111111111000 T
b1 /
b1 r
1&
b1010 t
b1010 1
b1010 5
b1010 |
b1 '
b1 v
b1 y
b1100011 A
b1100011 V
b1111111 :
b1111111 Q
b100 9
b100 P
b11 4
b11 Y
b11 p
b11001 2
b11001 W
b11001 q
b1111111 \
b11111111111111111111111111111001 Z
b111111111001 ]
b11001 [
b11111111111111111111111111100011 R
b111111100011 S
b11111110001100010100000000000000 c
b11111110001100010100 b
b11111111111111111111111111111000 ^
b1111111111000 _
b11111111111100010100111111100010 e
b100010100111111100010 d
b11 a
b11 `
b110 B
b110 w
b11111110001100010100110011100011 N
b11111110001100010100110011100011 )
b11111110001100010100110011100011 U
b10000 ,
b10000 H
b110 s
b110 0
b11000 L
b11000 J
b11000 -
b11000 K
b11000 O
0"
08
#225
1"
18
#230
b11100110 z
b11100100 {
0.
b0 f
b0 %
b0 u
1m
1F
1l
1@
0h
07
0>
06
b11100111 /
b11100111 r
1&
b11100111 '
b11100111 v
b11100111 y
0!
b100001 ;
b100001 T
b100001 C
b100001 x
b11000110 B
b11000110 w
b11000110 t
b11000110 1
b11000110 5
b11000110 |
b11000110 s
b11000110 0
b10011 A
b10011 V
b1 :
b1 Q
b0 9
b0 P
b1 4
b1 Y
b1 p
b1 3
b1 X
b1 o
b1 2
b1 W
b1 q
b1 \
b100001 Z
b100001 ]
b1 [
b100001 R
b100001 S
b10000100001000000000000000 c
b10000100001000 b
b100000100000 ^
b100000100000 _
b1000100000100000 e
b1000100000100000 d
b1 a
b1 `
b10100 ,
b10100 H
b10000100001000000010010011 N
b10000100001000000010010011 )
b10000100001000000010010011 U
b10000 L
b0 E
b10000 J
b10000 -
b10000 K
b10000 O
0"
08
#235
1"
18
#240
b1 C
b1 x
b1 ;
b1 T
b110 z
b100 {
b111 /
b111 r
1&
b111 '
b111 v
b111 y
b0 :
b0 Q
b10 3
b10 X
b10 o
b10 2
b10 W
b10 q
b0 \
b10 Z
b10 ]
b10 [
b1 R
b1 S
b100010000000000000000 c
b100010000 b
b10 ^
b10 _
b10000100000000000 e
b10000100000000000 d
b110 B
b110 w
b100010000000100010011 N
b100010000000100010011 )
b100010000000100010011 U
b11000 ,
b11000 H
b11100111 t
b11100111 1
b11100111 5
b11100111 |
b110 s
b110 0
b10100 L
b10100 J
b10100 -
b10100 K
b10100 O
0"
08
#245
1"
18
#250
1>
b10000 E
1.
16
b1100 f
b1100 %
b1100 u
0m
0F
0l
0@
1h
17
b1010 C
b1010 x
b11111111111111111111111111111000 ;
b11111111111111111111111111111000 T
b0 z
b0 {
b1 /
b1 r
1&
b1010 t
b1010 1
b1010 5
b1010 |
b1 '
b1 v
b1 y
b1100011 A
b1100011 V
b1111111 :
b1111111 Q
b100 9
b100 P
b11 4
b11 Y
b11 p
b11001 2
b11001 W
b11001 q
b1111111 \
b11111111111111111111111111111001 Z
b111111111001 ]
b11001 [
b11111111111111111111111111100011 R
b111111100011 S
b11111110001100010100000000000000 c
b11111110001100010100 b
b11111111111111111111111111111000 ^
b1111111111000 _
b11111111111100010100111111100010 e
b100010100111111100010 d
b11 a
b11 `
b111 B
b111 w
b11111110001100010100110011100011 N
b11111110001100010100110011100011 )
b11111110001100010100110011100011 U
b10000 ,
b10000 H
b111 s
b111 0
b11000 L
b11000 J
b11000 -
b11000 K
b11000 O
0"
08
#255
1"
18
#260
b100001000 z
b100001000 {
0.
b0 f
b0 %
b0 u
1m
1F
1l
1@
0h
07
0>
06
b100001000 /
b100001000 r
0&
b100001000 '
b100001000 v
b100001000 y
0!
b100001 ;
b100001 T
b100001 C
b100001 x
b11100111 B
b11100111 w
b11100111 t
b11100111 1
b11100111 5
b11100111 |
b11100111 s
b11100111 0
b10011 A
b10011 V
b1 :
b1 Q
b0 9
b0 P
b1 4
b1 Y
b1 p
b1 3
b1 X
b1 o
b1 2
b1 W
b1 q
b1 \
b100001 Z
b100001 ]
b1 [
b100001 R
b100001 S
b10000100001000000000000000 c
b10000100001000 b
b100000100000 ^
b100000100000 _
b1000100000100000 e
b1000100000100000 d
b1 a
b1 `
b10100 ,
b10100 H
b10000100001000000010010011 N
b10000100001000000010010011 )
b10000100001000000010010011 U
b10000 L
b0 E
b10000 J
b10000 -
b10000 K
b10000 O
0"
08
#265
1"
18
#270
b1 C
b1 x
b1 ;
b1 T
b1000 z
b1000 {
b1000 /
b1000 r
0&
b1000 '
b1000 v
b1000 y
b0 :
b0 Q
b10 3
b10 X
b10 o
b10 2
b10 W
b10 q
b0 \
b10 Z
b10 ]
b10 [
b1 R
b1 S
b100010000000000000000 c
b100010000 b
b10 ^
b10 _
b10000100000000000 e
b10000100000000000 d
b111 B
b111 w
b100010000000100010011 N
b100010000000100010011 )
b100010000000100010011 U
b11000 ,
b11000 H
b100001000 t
b100001000 1
b100001000 5
b100001000 |
b111 s
b111 0
b10100 L
b10100 J
b10100 -
b10100 K
b10100 O
0"
08
#275
1"
18
#280
1>
b10000 E
16
1.
b1100 f
b1100 %
b1100 u
0m
0F
0l
0@
1h
17
b0 z
b0 {
b1010 C
b1010 x
b11111111111111111111111111111000 ;
b11111111111111111111111111111000 T
b1 /
b1 r
1&
b1010 t
b1010 1
b1010 5
b1010 |
b1 '
b1 v
b1 y
b1100011 A
b1100011 V
b1111111 :
b1111111 Q
b100 9
b100 P
b11 4
b11 Y
b11 p
b11001 2
b11001 W
b11001 q
b1111111 \
b11111111111111111111111111111001 Z
b111111111001 ]
b11001 [
b11111111111111111111111111100011 R
b111111100011 S
b11111110001100010100000000000000 c
b11111110001100010100 b
b11111111111111111111111111111000 ^
b1111111111000 _
b11111111111100010100111111100010 e
b100010100111111100010 d
b11 a
b11 `
b1000 B
b1000 w
b11111110001100010100110011100011 N
b11111110001100010100110011100011 )
b11111110001100010100110011100011 U
b10000 ,
b10000 H
b1000 s
b1000 0
b11000 L
b11000 J
b11000 -
b11000 K
b11000 O
0"
08
#285
1"
18
#290
b100101000 z
b100101000 {
0.
b0 f
b0 %
b0 u
1m
1F
1l
1@
0h
07
0>
06
b100101001 /
b100101001 r
1&
b100101001 '
b100101001 v
b100101001 y
0!
b100001 ;
b100001 T
b100001 C
b100001 x
b100001000 B
b100001000 w
b100001000 t
b100001000 1
b100001000 5
b100001000 |
b100001000 s
b100001000 0
b10011 A
b10011 V
b1 :
b1 Q
b0 9
b0 P
b1 4
b1 Y
b1 p
b1 3
b1 X
b1 o
b1 2
b1 W
b1 q
b1 \
b100001 Z
b100001 ]
b1 [
b100001 R
b100001 S
b10000100001000000000000000 c
b10000100001000 b
b100000100000 ^
b100000100000 _
b1000100000100000 e
b1000100000100000 d
b1 a
b1 `
b10100 ,
b10100 H
b10000100001000000010010011 N
b10000100001000000010010011 )
b10000100001000000010010011 U
b10000 L
b0 E
b10000 J
b10000 -
b10000 K
b10000 O
0"
08
#295
1"
18
#300
b1 C
b1 x
b1 ;
b1 T
b1000 z
b1000 {
b1001 /
b1001 r
1&
b1001 '
b1001 v
b1001 y
b0 :
b0 Q
b10 3
b10 X
b10 o
b10 2
b10 W
b10 q
b0 \
b10 Z
b10 ]
b10 [
b1 R
b1 S
b100010000000000000000 c
b100010000 b
b10 ^
b10 _
b10000100000000000 e
b10000100000000000 d
b1000 B
b1000 w
b100010000000100010011 N
b100010000000100010011 )
b100010000000100010011 U
b11000 ,
b11000 H
b100101001 t
b100101001 1
b100101001 5
b100101001 |
b1000 s
b1000 0
b10100 L
b10100 J
b10100 -
b10100 K
b10100 O
0"
08
#305
1"
18
