test_data_make/my_test_result/store_load/waveform.vcd
$date
	Wed Dec 27 17:06:56 2023
$end
$version
	Icarus Verilog
$end
$timescale
	1s
$end
$scope module tb $end
$var wire 1 ! halt $end
$var reg 1 " clk $end
$var reg 1 # exit $end
$var reg 1 $ rst $end
$scope module CPU $end
$var wire 6 % ALU_Control [5:0] $end
$var wire 1 & ALU_branch_flag $end
$var wire 32 ' ALU_result [31:0] $end
$var wire 32 ( DataWord [31:0] $end
$var wire 32 ) InstWord [31:0] $end
$var wire 2 * MemSize [1:0] $end
$var wire 1 + MemWrEn $end
$var wire 32 , NPC [31:0] $end
$var wire 32 - PC [31:0] $end
$var wire 1 . RWrEn $end
$var wire 32 / RWrdata [31:0] $end
$var wire 32 0 Rdata1 [31:0] $end
$var wire 32 1 Rdata2 [31:0] $end
$var wire 5 2 Rdst [4:0] $end
$var wire 5 3 Rsrc1 [4:0] $end
$var wire 5 4 Rsrc2 [4:0] $end
$var wire 32 5 StoreData [31:0] $end
$var wire 1 6 branch_jump_flag $end
$var wire 1 7 branch_op $end
$var wire 1 8 clk $end
$var wire 3 9 funct3 [2:0] $end
$var wire 7 : funct7 [6:0] $end
$var wire 1 ! halt $end
$var wire 32 ; imm32 [31:0] $end
$var wire 1 < load_extend_sign $end
$var wire 1 = mem_wEn $end
$var wire 1 > next_PC_select $end
$var wire 2 ? op_A_sel [1:0] $end
$var wire 1 @ op_B_sel $end
$var wire 7 A opcode [6:0] $end
$var wire 32 B operand_A [31:0] $end
$var wire 32 C operand_B [31:0] $end
$var wire 1 D rst $end
$var wire 32 E target_PC [31:0] $end
$var wire 1 F wEn $end
$var wire 1 G wb_sel $end
$scope module PC_REG $end
$var wire 1 8 CLK $end
$var wire 32 H Din [31:0] $end
$var wire 1 D RST $end
$var wire 1 I WEN $end
$var reg 32 J Qout [31:0] $end
$upscope $end
$scope module IMEM $end
$var wire 32 K Addr [31:0] $end
$var wire 32 L AddrW [31:0] $end
$var wire 1 8 CLK $end
$var wire 2 M Size [1:0] $end
$var reg 32 N DataOut [31:0] $end
$upscope $end
$scope module decoder_unit $end
$var wire 32 O PC [31:0] $end
$var wire 3 P funct3 [2:0] $end
$var wire 7 Q funct7 [6:0] $end
$var wire 32 R i_imm_32 [31:0] $end
$var wire 12 S i_imm_orig [11:0] $end
$var wire 32 T imm32 [31:0] $end
$var wire 32 U instruction [31:0] $end
$var wire 7 V opcode [6:0] $end
$var wire 5 W rd [4:0] $end
$var wire 5 X read_sel1 [4:0] $end
$var wire 5 Y read_sel2 [4:0] $end
$var wire 32 Z s_imm_32 [31:0] $end
$var wire 5 [ s_imm_lsb [4:0] $end
$var wire 7 \ s_imm_msb [6:0] $end
$var wire 12 ] s_imm_orig [11:0] $end
$var wire 32 ^ sb_imm_32 [31:0] $end
$var wire 13 _ sb_imm_orig [12:0] $end
$var wire 5 ` shamt [4:0] $end
$var wire 32 a shamt_32 [31:0] $end
$var wire 20 b u_imm [19:0] $end
$var wire 32 c u_imm_32 [31:0] $end
$var wire 21 d uj_imm [20:0] $end
$var wire 32 e uj_imm_32 [31:0] $end
$var reg 6 f ALU_Control [5:0] $end
$var reg 2 g MemSize [1:0] $end
$var reg 1 h branch_op $end
$var reg 1 i load_extend_sign $end
$var reg 1 j mem_wEn $end
$var reg 2 k op_A_sel [1:0] $end
$var reg 1 l op_B_sel $end
$var reg 1 m wEn $end
$var reg 1 n wb_sel $end
$upscope $end
$scope module RF $end
$var wire 5 o AddrA [4:0] $end
$var wire 5 p AddrB [4:0] $end
$var wire 5 q AddrW [4:0] $end
$var wire 1 8 CLK $end
$var wire 32 r DataInW [31:0] $end
$var wire 1 . WenW $end
$var reg 32 s DataOutA [31:0] $end
$var reg 32 t DataOutB [31:0] $end
$upscope $end
$scope module ALU_inst $end
$var wire 6 u ALU_Control [5:0] $end
$var wire 32 v ALU_result [31:0] $end
$var wire 32 w operand_A [31:0] $end
$var wire 32 x operand_B [31:0] $end
$upscope $end
$scope module DMEM $end
$var wire 32 y Addr [31:0] $end
$var wire 32 z AddrH [31:0] $end
$var wire 32 { AddrW [31:0] $end
$var wire 1 8 CLK $end
$var wire 32 | DataIn [31:0] $end
$var wire 2 } Size [1:0] $end
$var wire 1 + WEN $end
$var wire 1 < load_extend_sign $end
$var reg 32 ~ DataOut [31:0] $end
$upscope $end
$upscope $end
$upscope $end
$enddefinitions $end
#0
$dumpvars
bx ~
bx }
bx |
b11011110101011011100000000000000 {
b11011110101011011100000000000000 z
b11011110101011011100000000000000 y
b11011110101011011100000000000000 x
b0 w
b11011110101011011100000000000000 v
b0 u
bx t
bx s
b11011110101011011100000000000000 r
b1 q
b1010 p
b11011 o
0n
1m
1l
b11 k
0j
xi
0h
bx g
b0 f
b11111111111111011100010111101010 e
b111011100010111101010 d
b11011110101011011100000000000000 c
b11011110101011011100 b
b1010 a
b1010 `
b1110111100000 _
b11111111111111111111110111100000 ^
b110111100001 ]
b1101111 \
b1 [
b11111111111111111111110111100001 Z
b1010 Y
b11011 X
b1 W
b110111 V
b11011110101011011100000010110111 U
b11011110101011011100000000000000 T
b110111101010 S
b11111111111111111111110111101010 R
b1101111 Q
b100 P
b0 O
b11011110101011011100000010110111 N
b10 M
b0 L
b0 K
b0 J
0I
b100 H
0G
1F
b0 E
1D
b11011110101011011100000000000000 C
b0 B
b110111 A
1@
b11 ?
0>
0=
x<
b11011110101011011100000000000000 ;
b1101111 :
b100 9
08
07
06
bx 5
b1010 4
b11011 3
b1 2
bx 1
bx 0
b11011110101011011100000000000000 /
0.
b0 -
b100 ,
1+
bx *
b11011110101011011100000010110111 )
bx (
b11011110101011011100000000000000 '
0&
b0 %
1$
0#
0"
0!
$end
#5
1"
18
#10
b11011110101011011100000000000000 B
b11011110101011011100000000000000 w
b0 k
b0 ?
b11011110101011011011111011101110 z
b11011110101011011011111011101100 {
b11011110101011011011111011101111 /
b11011110101011011011111011101111 r
1&
b11011110101011011011111011101111 '
b11011110101011011011111011101111 v
b11011110101011011011111011101111 y
b11111111111111111111111011101111 C
b11111111111111111111111011101111 x
b11111111111111111111111011101111 ;
b11111111111111111111111011101111 T
0!
b11011110101011011100000000000000 s
b11011110101011011100000000000000 0
b10011 A
b10011 V
b1110111 :
b1110111 Q
b0 9
b0 P
b1111 4
b1111 Y
b1111 p
b1 3
b1 X
b1 o
b11111111111111111111111011100001 Z
b111011100001 ]
b1110111 \
b11111111111111111111111011101111 R
b111011101111 S
b11101110111100001000000000000000 c
b11101110111100001000 b
b11111111111111111111111011100000 ^
b1111011100000 _
b11111111111100001000111011101110 e
b100001000111011101110 d
b1111 a
b1111 `
b11101110111100001000000010010011 N
b11101110111100001000000010010011 )
b11101110111100001000000010010011 U
b1000 ,
b1000 H
b100 L
b100 J
b100 -
b100 K
b100 O
0"
08
#15
1"
18
#20
b10000000 C
b10000000 x
b10000000 ;
b10000000 T
b10000000 z
b10000000 {
b10000000 /
b10000000 r
0&
b0 t
b0 1
b0 5
b0 |
b10000000 '
b10000000 v
b10000000 y
b100 :
b100 Q
b0 4
b0 Y
b0 p
b0 3
b0 X
b0 o
b10 2
b10 W
b10 q
b100 \
b10000010 Z
b10000010 ]
b10 [
b10000000 R
b10000000 S
b1000000000000000000000000000 c
b1000000000000000 b
b10000010 ^
b10000010 _
b10000000 e
b10000000 d
b0 a
b0 `
b0 B
b0 w
b1000000000000000000100010011 N
b1000000000000000000100010011 )
b1000000000000000000100010011 U
b1100 ,
b1100 H
b0 s
b0 0
b1000 L
b1000 J
b1000 -
b1000 K
b1000 O
0"
08
#25
1"
18
#30
1.
0+
b10 g
b10 *
b10 }
0m
0F
1j
1=
b10000100 z
b10000100 {
b10000100 /
b10000100 r
b10000100 '
b10000100 v
b10000100 y
b100 C
b100 x
b10000000 B
b10000000 w
b100 ;
b100 T
b11011110101011011011111011101111 t
b11011110101011011011111011101111 1
b11011110101011011011111011101111 5
b11011110101011011011111011101111 |
b10000000 s
b10000000 0
b100011 A
b100011 V
b0 :
b0 Q
b10 9
b10 P
b1 4
b1 Y
b1 p
b10 3
b10 X
b10 o
b100 2
b100 W
b100 q
b0 \
b100 Z
b100 ]
b100 [
b1 R
b1 S
b100010010000000000000 c
b100010010 b
b100 ^
b100 _
b10010100000000000 e
b10010100000000000 d
b1 a
b1 `
b100010010001000100011 N
b100010010001000100011 )
b100010010001000100011 U
b10000 ,
b10000 H
b1100 L
b1100 J
b1100 -
b1100 K
b1100 O
0"
08
#35
1"
18
#40
0.
b11011110101011011011111011101111 /
b11011110101011011011111011101111 r
1+
1m
1F
1n
1G
0j
0=
bx t
bx 1
bx 5
bx |
b11 A
b11 V
b100 4
b100 Y
b100 p
b11 2
b11 W
b11 q
b11 Z
b11 ]
b11 [
b100 R
b100 S
b10000010010000000000000 c
b10000010010 b
b100000000010 ^
b100000000010 _
b10010000000000100 e
b10010000000000100 d
b100 a
b100 `
b10000010010000110000011 N
b10000010010000110000011 )
b10000010010000110000011 U
b10100 ,
b10100 H
b11011110101011011011111011101111 ~
b11011110101011011011111011101111 (
b10000 L
b10000 J
b10000 -
b10000 K
b10000 O
0"
08
#45
1"
18
#50
b11111111111111111111111110111110 /
b11111111111111111111111110111110 r
b11111111111111111111111110111110 ~
b11111111111111111111111110111110 (
1i
1<
b0 g
b0 *
b0 }
1&
b10000101 '
b10000101 v
b10000101 y
b101 C
b101 x
b101 ;
b101 T
b0 9
b0 P
b101 4
b101 Y
b101 p
b100 2
b100 W
b100 q
b100 Z
b100 ]
b100 [
b101 R
b101 S
b10100010000000000000000 c
b10100010000 b
b100 ^
b100 _
b10000100000000100 e
b10000100000000100 d
b101 a
b101 `
b10100010000001000000011 N
b10100010000001000000011 )
b10100010000001000000011 U
b11000 ,
b11000 H
b10100 L
b10100 J
b10100 -
b10100 K
b10100 O
0"
08
#55
1"
18
#60
1.
0+
0m
0F
0n
0G
1j
1=
b1111111 /
b1111111 r
b1111110 z
b1111100 {
1&
bx ~
bx (
b1111111 '
b1111111 v
b1111111 y
b11111111111111111111111111111111 C
b11111111111111111111111111111111 x
b11111111111111111111111111111111 ;
b11111111111111111111111111111111 T
b11011110101011011011111011101111 t
b11011110101011011011111011101111 1
b11011110101011011011111011101111 5
b11011110101011011011111011101111 |
b100011 A
b100011 V
b1111111 :
b1111111 Q
b1 4
b1 Y
b1 p
b11111 2
b11111 W
b11111 q
b1111111 \
b11111111111111111111111111111111 Z
b111111111111 ]
b11111 [
b11111111111111111111111111100001 R
b111111100001 S
b11111110000100010000000000000000 c
b11111110000100010000 b
b11111111111111111111111111111110 ^
b1111111111110 _
b11111111111100010000111111100000 e
b100010000111111100000 d
b1 a
b1 `
b11111110000100010000111110100011 N
b11111110000100010000111110100011 )
b11111110000100010000111110100011 U
b11100 ,
b11100 H
b11000 L
b11000 J
b11000 -
b11000 K
b11000 O
0"
08
#65
1"
18
#70
b1111110 /
b1111110 r
0&
b1111110 '
b1111110 v
b1111110 y
b11111111111111111111111111111110 C
b11111111111111111111111111111110 x
b11111111111111111111111111111110 ;
b11111111111111111111111111111110 T
b11110 2
b11110 W
b11110 q
b11111111111111111111111111111110 Z
b111111111110 ]
b11110 [
b11111111111111111111011111111110 ^
b1011111111110 _
b11111110000100010000111100100011 N
b11111110000100010000111100100011 )
b11111110000100010000111100100011 U
b100000 ,
b100000 H
bx ~
bx (
b11100 L
b11100 J
b11100 -
b11100 K
b11100 O
0"
08
#75
1"
18
#80
b1111100 z
b1111101 /
b1111101 r
1&
b1111101 '
b1111101 v
b1111101 y
b11111111111111111111111111111101 C
b11111111111111111111111111111101 x
b11111111111111111111111111111101 ;
b11111111111111111111111111111101 T
b11101 2
b11101 W
b11101 q
b11111111111111111111111111111101 Z
b111111111101 ]
b11101 [
b11111111111111111111111111111100 ^
b1111111111100 _
b11111110000100010000111010100011 N
b11111110000100010000111010100011 )
b11111110000100010000111010100011 U
b100100 ,
b100100 H
bx ~
bx (
b100000 L
b100000 J
b100000 -
b100000 K
b100000 O
0"
08
#85
1"
18
#90
b1111100 /
b1111100 r
0&
b1111100 '
b1111100 v
b1111100 y
b11111111111111111111111111111100 C
b11111111111111111111111111111100 x
b11111111111111111111111111111100 ;
b11111111111111111111111111111100 T
b11100 2
b11100 W
b11100 q
b11111111111111111111111111111100 Z
b111111111100 ]
b11100 [
b11111111111111111111011111111100 ^
b1011111111100 _
b11111110000100010000111000100011 N
b11111110000100010000111000100011 )
b11111110000100010000111000100011 U
b101000 ,
b101000 H
bx ~
bx (
b100100 L
b100100 J
b100100 -
b100100 K
b100100 O
0"
08
#95
1"
18
#100
0.
b11101111111011111110111111101111 /
b11101111111011111110111111101111 r
1+
b10 g
b10 *
b10 }
1m
1F
1n
1G
0j
0=
bx t
bx 1
bx 5
bx |
b11 A
b11 V
b10 9
b10 P
b11100 4
b11100 Y
b11100 p
b101 2
b101 W
b101 q
b11111111111111111111111111100101 Z
b111111100101 ]
b101 [
b11111111111111111111111111111100 R
b111111111100 S
b11111111110000010010000000000000 c
b11111111110000010010 b
b11111111111111111111111111100100 ^
b1111111100100 _
b11111111111100010010011111111100 e
b100010010011111111100 d
b11100 a
b11100 `
b11111111110000010010001010000011 N
b11111111110000010010001010000011 )
b11111111110000010010001010000011 U
b101100 ,
b101100 H
b11101111111011111110111111101111 ~
b11101111111011111110111111101111 (
b101000 L
b101000 J
b101000 -
b101000 K
b101000 O
0"
08
#105
1"
18
#110
1.
0+
0m
0F
0n
0G
1j
1=
b10000000 /
b10000000 r
bx ~
bx (
b10000000 z
b10000000 {
b10000000 '
b10000000 v
b10000000 y
b0 C
b0 x
b0 ;
b0 T
b11101111111011111110111111101111 t
b11101111111011111110111111101111 1
b11101111111011111110111111101111 5
b11101111111011111110111111101111 |
b100011 A
b100011 V
b0 :
b0 Q
b101 4
b101 Y
b101 p
b0 2
b0 W
b0 q
b0 \
b0 Z
b0 ]
b0 [
b101 R
b101 S
b10100010010000000000000 c
b10100010010 b
b0 ^
b0 _
b10010100000000100 e
b10010100000000100 d
b101 a
b101 `
b10100010010000000100011 N
b10100010010000000100011 )
b10100010010000000100011 U
b110000 ,
b110000 H
b101100 L
b101100 J
b101100 -
b101100 K
b101100 O
0"
08
#115
1"
18
#120
0.
1+
b0 g
b0 *
b0 }
1m
1F
1n
1G
0j
0=
b10000010 z
b11111111111111111111111111101111 /
b11111111111111111111111111101111 r
b10000010 '
b10000010 v
b10000010 y
b10 C
b10 x
b10 ;
b10 T
b10000000 t
b10000000 1
b10000000 5
b10000000 |
b11 A
b11 V
b0 9
b0 P
b10 4
b10 Y
b10 p
b110 2
b110 W
b110 q
b110 Z
b110 ]
b110 [
b10 R
b10 S
b1000010000000000000000 c
b1000010000 b
b110 ^
b110 _
b10000000000000010 e
b10000000000000010 d
b10 a
b10 `
b1000010000001100000011 N
b1000010000001100000011 )
b1000010000001100000011 U
b110100 ,
b110100 H
b11111111111111111111111111101111 ~
b11111111111111111111111111101111 (
b110000 L
b110000 J
b110000 -
b110000 K
b110000 O
0"
08
#125
1"
18
#130
b11101111 /
b11101111 r
b11101111 ~
b11101111 (
0i
0<
1&
b10000011 '
b10000011 v
b10000011 y
b11 C
b11 x
b11 ;
b11 T
b11011110101011011011111011101111 t
b11011110101011011011111011101111 1
b11011110101011011011111011101111 5
b11011110101011011011111011101111 |
b100 9
b100 P
b11 4
b11 Y
b11 p
b111 2
b111 W
b111 q
b111 Z
b111 ]
b111 [
b11 R
b11 S
b1100010100000000000000 c
b1100010100 b
b100000000110 ^
b100000000110 _
b10100100000000010 e
b10100100000000010 d
b11 a
b11 `
b1100010100001110000011 N
b1100010100001110000011 )
b1100010100001110000011 U
b111000 ,
b111000 H
b110100 L
b110100 J
b110100 -
b110100 K
b110100 O
0"
08
#135
1"
18
#140
1!
0&
b0xxxxxxxx /
b0xxxxxxxx r
b0 z
b0 {
b0xxxxxxxx ~
b0xxxxxxxx (
b0 C
b0 x
b0 '
b0 v
b0 y
b0 ;
b0 T
b0 B
b0 w
b0 t
b0 1
b0 5
b0 |
b0 s
b0 0
b0 A
b0 V
b0 9
b0 P
b0 4
b0 Y
b0 p
b0 3
b0 X
b0 o
b0 2
b0 W
b0 q
b0 Z
b0 ]
b0 [
b0 R
b0 S
b0 c
b0 b
b0 ^
b0 _
b0 e
b0 d
b0 a
b0 `
b0 N
b0 )
b0 U
b111100 ,
b111100 H
b111000 L
b111000 J
b111000 -
b111000 K
b111000 O
0"
08
#145
1#
1"
18
